[
  {
    "team": "core",
    "package": "@atlaskit/nps",
    "version": "6.0.3",
    "dependent": true,
    "id": "src.main",
    "name": "main",
    "stats": {
      "size": 13264,
      "gzipSize": 3809
    }
  },
  {
    "team": "core",
    "package": "@atlaskit/nps",
    "version": "6.0.3",
    "dependent": true,
    "id": "node_modules.main",
    "name": "node_modules [main]",
    "stats": {
      "size": 98529,
      "gzipSize": 29737
    }
  },
  {
    "team": "core",
    "package": "@atlaskit/nps",
    "version": "6.0.3",
    "dependent": true,
    "id": "atlaskit.core.main",
    "name": "main",
    "stats": {
      "size": 132660,
      "gzipSize": 32416
    }
  },
  {
    "team": "core",
    "package": "@atlaskit/nps",
    "version": "6.0.3",
    "dependent": true,
    "id": "combined.main",
    "name": "main",
    "stats": {
      "size": 241168,
      "gzipSize": 63614
    }
  }
]