[
  {
    "team": "editor",
    "package": "@atlaskit/conversation",
    "version": "15.2.1",
    "dependent": true,
    "id": "src.main",
    "name": "main",
    "stats": {
      "size": 36072,
      "gzipSize": 9136
    }
  },
  {
    "team": "editor",
    "package": "@atlaskit/conversation",
    "version": "15.2.1",
    "dependent": true,
    "id": "node_modules.main",
    "name": "node_modules [main]",
    "stats": {
      "size": 831094,
      "gzipSize": 244227
    }
  },
  {
    "team": "editor",
    "package": "@atlaskit/conversation",
    "version": "15.2.1",
    "dependent": true,
    "id": "node_modules.async",
    "name": "node_modules [async]",
    "stats": {
      "size": 1725880,
      "gzipSize": 517981
    }
  },
  {
    "team": "editor",
    "package": "@atlaskit/conversation",
    "version": "15.2.1",
    "dependent": true,
    "id": "atlaskit.core.main",
    "name": "main",
    "stats": {
      "size": 309404,
      "gzipSize": 64652
    }
  },
  {
    "team": "editor",
    "package": "@atlaskit/conversation",
    "version": "15.2.1",
    "dependent": true,
    "id": "atlaskit.core.async",
    "name": "async",
    "stats": {
      "size": 165772,
      "gzipSize": 31055
    }
  },
  {
    "team": "editor",
    "package": "@atlaskit/conversation",
    "version": "15.2.1",
    "dependent": true,
    "id": "atlaskit.editor.main",
    "name": "main",
    "stats": {
      "size": 857978,
      "gzipSize": 222391
    }
  },
  {
    "team": "editor",
    "package": "@atlaskit/conversation",
    "version": "15.2.1",
    "dependent": true,
    "id": "atlaskit.editor.async",
    "name": "async",
    "stats": {
      "size": 48827,
      "gzipSize": 11575
    }
  },
  {
    "team": "editor",
    "package": "@atlaskit/conversation",
    "version": "15.2.1",
    "dependent": true,
    "id": "atlaskit.elements.main",
    "name": "main",
    "stats": {
      "size": 115668,
      "gzipSize": 29197
    }
  },
  {
    "team": "editor",
    "package": "@atlaskit/conversation",
    "version": "15.2.1",
    "dependent": true,
    "id": "atlaskit.elements.async",
    "name": "async",
    "stats": {
      "size": 74273,
      "gzipSize": 22487
    }
  },
  {
    "team": "editor",
    "package": "@atlaskit/conversation",
    "version": "15.2.1",
    "dependent": true,
    "id": "atlaskit.media.main",
    "name": "main",
    "stats": {
      "size": 74127,
      "gzipSize": 17141
    }
  },
  {
    "team": "editor",
    "package": "@atlaskit/conversation",
    "version": "15.2.1",
    "dependent": true,
    "id": "atlaskit.media.async",
    "name": "async",
    "stats": {
      "size": 1027442,
      "gzipSize": 250904
    }
  },
  {
    "team": "editor",
    "package": "@atlaskit/conversation",
    "version": "15.2.1",
    "dependent": true,
    "id": "atlaskit.people-and-teams.main",
    "name": "main",
    "stats": {
      "size": 29422,
      "gzipSize": 6810
    }
  },
  {
    "team": "editor",
    "package": "@atlaskit/conversation",
    "version": "15.2.1",
    "dependent": true,
    "id": "atlaskit.teamwork-ecosystem.main",
    "name": "main",
    "stats": {
      "size": 624,
      "gzipSize": 367
    }
  },
  {
    "team": "editor",
    "package": "@atlaskit/conversation",
    "version": "15.2.1",
    "dependent": true,
    "id": "combined.main",
    "name": "main",
    "stats": {
      "size": 2243559,
      "gzipSize": 603215
    }
  },
  {
    "team": "editor",
    "package": "@atlaskit/conversation",
    "version": "15.2.1",
    "dependent": true,
    "id": "combined.async",
    "name": "async",
    "stats": {
      "size": 3040895,
      "gzipSize": 836725
    }
  }
]