[
  {
    "team": "core",
    "package": "@atlaskit/global-navigation",
    "version": "7.3.8",
    "dependent": true,
    "id": "src.main",
    "name": "main",
    "stats": {
      "size": 20312,
      "gzipSize": 6974
    }
  },
  {
    "team": "core",
    "package": "@atlaskit/global-navigation",
    "version": "7.3.8",
    "dependent": true,
    "id": "node_modules.main",
    "name": "node_modules [main]",
    "stats": {
      "size": 271006,
      "gzipSize": 78751
    }
  },
  {
    "team": "core",
    "package": "@atlaskit/global-navigation",
    "version": "7.3.8",
    "dependent": true,
    "id": "atlaskit.core.main",
    "name": "main",
    "stats": {
      "size": 191455,
      "gzipSize": 47666
    }
  },
  {
    "team": "core",
    "package": "@atlaskit/global-navigation",
    "version": "7.3.8",
    "dependent": true,
    "id": "atlaskit.elements.main",
    "name": "main",
    "stats": {
      "size": 2920,
      "gzipSize": 1238
    }
  },
  {
    "team": "core",
    "package": "@atlaskit/global-navigation",
    "version": "7.3.8",
    "dependent": true,
    "id": "atlaskit.home.main",
    "name": "main",
    "stats": {
      "size": 3992,
      "gzipSize": 1471
    }
  },
  {
    "team": "core",
    "package": "@atlaskit/global-navigation",
    "version": "7.3.8",
    "dependent": true,
    "id": "atlaskit.navigation.main",
    "name": "main",
    "stats": {
      "size": 67926,
      "gzipSize": 17798
    }
  },
  {
    "team": "core",
    "package": "@atlaskit/global-navigation",
    "version": "7.3.8",
    "dependent": true,
    "id": "combined.main",
    "name": "main",
    "stats": {
      "size": 548937,
      "gzipSize": 151701
    }
  }
]