[
  {
    "team": "core",
    "package": "@atlaskit/modal-dialog",
    "version": "10.0.5",
    "dependent": true,
    "id": "src.main",
    "name": "main",
    "stats": {
      "size": 20085,
      "gzipSize": 5557
    }
  },
  {
    "team": "core",
    "package": "@atlaskit/modal-dialog",
    "version": "10.0.5",
    "dependent": true,
    "id": "node_modules.main",
    "name": "node_modules [main]",
    "stats": {
      "size": 63897,
      "gzipSize": 19818
    }
  },
  {
    "team": "core",
    "package": "@atlaskit/modal-dialog",
    "version": "10.0.5",
    "dependent": true,
    "id": "atlaskit.core.main",
    "name": "main",
    "stats": {
      "size": 51735,
      "gzipSize": 13522
    }
  },
  {
    "team": "core",
    "package": "@atlaskit/modal-dialog",
    "version": "10.0.5",
    "dependent": true,
    "id": "combined.main",
    "name": "main",
    "stats": {
      "size": 133894,
      "gzipSize": 37201
    }
  }
]