[
  {
    "team": "media",
    "package": "@atlaskit/media-editor",
    "version": "36.1.2",
    "dependent": true,
    "id": "src.main",
    "name": "main",
    "stats": {
      "size": 4602,
      "gzipSize": 1849
    }
  },
  {
    "team": "media",
    "package": "@atlaskit/media-editor",
    "version": "36.1.2",
    "dependent": true,
    "id": "src.async",
    "name": "async",
    "stats": {
      "size": 595532,
      "gzipSize": 148012
    }
  },
  {
    "team": "media",
    "package": "@atlaskit/media-editor",
    "version": "36.1.2",
    "dependent": true,
    "id": "node_modules.main",
    "name": "node_modules [main]",
    "stats": {
      "size": 17371,
      "gzipSize": 4571
    }
  },
  {
    "team": "media",
    "package": "@atlaskit/media-editor",
    "version": "36.1.2",
    "dependent": true,
    "id": "node_modules.async",
    "name": "node_modules [async]",
    "stats": {
      "size": 333825,
      "gzipSize": 88437
    }
  },
  {
    "team": "media",
    "package": "@atlaskit/media-editor",
    "version": "36.1.2",
    "dependent": true,
    "id": "atlaskit.core.main",
    "name": "main",
    "stats": {
      "size": 27874,
      "gzipSize": 7011
    }
  },
  {
    "team": "media",
    "package": "@atlaskit/media-editor",
    "version": "36.1.2",
    "dependent": true,
    "id": "atlaskit.core.async",
    "name": "async",
    "stats": {
      "size": 60203,
      "gzipSize": 14929
    }
  },
  {
    "team": "media",
    "package": "@atlaskit/media-editor",
    "version": "36.1.2",
    "dependent": true,
    "id": "atlaskit.media.main",
    "name": "main",
    "stats": {
      "size": 886,
      "gzipSize": 436
    }
  },
  {
    "team": "media",
    "package": "@atlaskit/media-editor",
    "version": "36.1.2",
    "dependent": true,
    "id": "atlaskit.media.async",
    "name": "async",
    "stats": {
      "size": 44901,
      "gzipSize": 11204
    }
  },
  {
    "team": "media",
    "package": "@atlaskit/media-editor",
    "version": "36.1.2",
    "dependent": true,
    "id": "combined.main",
    "name": "main",
    "stats": {
      "size": 50032,
      "gzipSize": 12949
    }
  },
  {
    "team": "media",
    "package": "@atlaskit/media-editor",
    "version": "36.1.2",
    "dependent": true,
    "id": "combined.async",
    "name": "async",
    "stats": {
      "size": 1033660,
      "gzipSize": 262326
    }
  }
]