[
  {
    "team": "server",
    "package": "@atlaskit/progress-bar",
    "version": "0.2.0",
    "dependent": true,
    "id": "src.main",
    "name": "main",
    "stats": {
      "size": 4131,
      "gzipSize": 1583
    }
  },
  {
    "team": "server",
    "package": "@atlaskit/progress-bar",
    "version": "0.2.0",
    "dependent": true,
    "id": "node_modules.main",
    "name": "node_modules [main]",
    "stats": {
      "size": 19286,
      "gzipSize": 7126
    }
  },
  {
    "team": "server",
    "package": "@atlaskit/progress-bar",
    "version": "0.2.0",
    "dependent": true,
    "id": "atlaskit.core.main",
    "name": "main",
    "stats": {
      "size": 12243,
      "gzipSize": 3325
    }
  },
  {
    "team": "server",
    "package": "@atlaskit/progress-bar",
    "version": "0.2.0",
    "dependent": true,
    "id": "combined.main",
    "name": "main",
    "stats": {
      "size": 34161,
      "gzipSize": 11201
    }
  }
]