[
  {
    "team": "core",
    "package": "@atlaskit/icon",
    "version": "18.0.2",
    "dependent": true,
    "id": "src.main",
    "name": "main",
    "stats": {
      "size": 59818,
      "gzipSize": 9901
    }
  },
  {
    "team": "core",
    "package": "@atlaskit/icon",
    "version": "18.0.2",
    "dependent": true,
    "id": "node_modules.main",
    "name": "node_modules [main]",
    "stats": {
      "size": 5334,
      "gzipSize": 1998
    }
  },
  {
    "team": "core",
    "package": "@atlaskit/icon",
    "version": "18.0.2",
    "dependent": true,
    "id": "atlaskit.core.main",
    "name": "main",
    "stats": {
      "size": 12148,
      "gzipSize": 3282
    }
  },
  {
    "team": "core",
    "package": "@atlaskit/icon",
    "version": "18.0.2",
    "dependent": true,
    "id": "combined.main",
    "name": "main",
    "stats": {
      "size": 75970,
      "gzipSize": 14421
    }
  }
]