[
  {
    "team": "core",
    "package": "@atlaskit/section-message",
    "version": "4.0.2",
    "dependent": true,
    "id": "src.main",
    "name": "main",
    "stats": {
      "size": 4675,
      "gzipSize": 1743
    }
  },
  {
    "team": "core",
    "package": "@atlaskit/section-message",
    "version": "4.0.2",
    "dependent": true,
    "id": "node_modules.main",
    "name": "node_modules [main]",
    "stats": {
      "size": 36158,
      "gzipSize": 11376
    }
  },
  {
    "team": "core",
    "package": "@atlaskit/section-message",
    "version": "4.0.2",
    "dependent": true,
    "id": "atlaskit.core.main",
    "name": "main",
    "stats": {
      "size": 51220,
      "gzipSize": 13060
    }
  },
  {
    "team": "core",
    "package": "@atlaskit/section-message",
    "version": "4.0.2",
    "dependent": true,
    "id": "combined.main",
    "name": "main",
    "stats": {
      "size": 91240,
      "gzipSize": 25110
    }
  }
]