[
  {
    "team": "core",
    "package": "@atlaskit/input",
    "version": "6.0.0",
    "dependent": true,
    "id": "src.main",
    "name": "main",
    "stats": {
      "size": 3984,
      "gzipSize": 1748
    }
  },
  {
    "team": "core",
    "package": "@atlaskit/input",
    "version": "6.0.0",
    "dependent": true,
    "id": "node_modules.main",
    "name": "node_modules [main]",
    "stats": {
      "size": 4177,
      "gzipSize": 1692
    }
  },
  {
    "team": "core",
    "package": "@atlaskit/input",
    "version": "6.0.0",
    "dependent": true,
    "id": "atlaskit.core.main",
    "name": "main",
    "stats": {
      "size": 2117,
      "gzipSize": 757
    }
  },
  {
    "team": "core",
    "package": "@atlaskit/input",
    "version": "6.0.0",
    "dependent": true,
    "id": "combined.main",
    "name": "main",
    "stats": {
      "size": 9451,
      "gzipSize": 3544
    }
  }
]