[
  {
    "team": "elements",
    "package": "@atlaskit/analytics-viewer",
    "version": "0.3.0",
    "dependent": true,
    "id": "src.main",
    "name": "main",
    "stats": {
      "size": 4841,
      "gzipSize": 1701
    }
  },
  {
    "team": "elements",
    "package": "@atlaskit/analytics-viewer",
    "version": "0.3.0",
    "dependent": true,
    "id": "node_modules.main",
    "name": "node_modules [main]",
    "stats": {
      "size": 2367,
      "gzipSize": 839
    }
  },
  {
    "team": "elements",
    "package": "@atlaskit/analytics-viewer",
    "version": "0.3.0",
    "dependent": true,
    "id": "atlaskit.core.main",
    "name": "main",
    "stats": {
      "size": 993,
      "gzipSize": 529
    }
  },
  {
    "team": "elements",
    "package": "@atlaskit/analytics-viewer",
    "version": "0.3.0",
    "dependent": true,
    "id": "combined.main",
    "name": "main",
    "stats": {
      "size": 7438,
      "gzipSize": 2420
    }
  }
]