[
  {
    "team": "css packs",
    "package": "@atlaskit/css-reset",
    "version": "5.0.1",
    "dependent": true,
    "id": "src.main",
    "name": "main",
    "stats": {
      "size": 11583,
      "gzipSize": 2750
    }
  },
  {
    "team": "css packs",
    "package": "@atlaskit/css-reset",
    "version": "5.0.1",
    "dependent": true,
    "id": "node_modules.main",
    "name": "node_modules [main]",
    "stats": {
      "size": 3640,
      "gzipSize": 1298
    }
  },
  {
    "team": "css packs",
    "package": "@atlaskit/css-reset",
    "version": "5.0.1",
    "dependent": true,
    "id": "atlaskit.core.main",
    "name": "main",
    "stats": {
      "size": 15157,
      "gzipSize": 3869
    }
  },
  {
    "team": "css packs",
    "package": "@atlaskit/css-reset",
    "version": "5.0.1",
    "dependent": true,
    "id": "combined.main",
    "name": "main",
    "stats": {
      "size": 28016,
      "gzipSize": 7020
    }
  }
]