[
  {
    "team": "jira",
    "package": "@atlaskit/color-picker",
    "version": "0.5.2",
    "dependent": true,
    "id": "src.main",
    "name": "main",
    "stats": {
      "size": 7007,
      "gzipSize": 2489
    }
  },
  {
    "team": "jira",
    "package": "@atlaskit/color-picker",
    "version": "0.5.2",
    "dependent": true,
    "id": "node_modules.main",
    "name": "node_modules [main]",
    "stats": {
      "size": 183436,
      "gzipSize": 55226
    }
  },
  {
    "team": "jira",
    "package": "@atlaskit/color-picker",
    "version": "0.5.2",
    "dependent": true,
    "id": "atlaskit.core.main",
    "name": "main",
    "stats": {
      "size": 34793,
      "gzipSize": 9669
    }
  },
  {
    "team": "jira",
    "package": "@atlaskit/color-picker",
    "version": "0.5.2",
    "dependent": true,
    "id": "combined.main",
    "name": "main",
    "stats": {
      "size": 223986,
      "gzipSize": 65464
    }
  }
]